{
  "name":"stroke_predictor205_bd1",
  "target_environment":"DEV",
  "pipelines":{
    "feature_engg_and_classifier_pipeline":{
      "components":{
        "string_indexer":{
          "build_version":6,
          "args":[
            "--model_param_numTrees",
            {
              "inputValue":"model_param_numTrees"
            },
            "--model_param_maxDepth",
            {
              "inputValue":"model_param_maxDepth"
            }
          ]
        },
        "vector_assembler":{
          "build_version":6,
          "args":[
            "--model_param_numTrees",
            {
              "inputValue":"model_param_numTrees"
            },
            "--model_param_maxDepth",
            {
              "inputValue":"model_param_maxDepth"
            }
          ]
        },
        "one_hot_encoder":{
          "build_version":6,
          "args":[
            "--model_param_numTrees",
            {
              "inputValue":"model_param_numTrees"
            },
            "--model_param_maxDepth",
            {
              "inputValue":"model_param_maxDepth"
            }
          ]
        }
      }
    }
  }
}
