{
   "name":"stroke_predictor205_bd1",
   "components":{
      "model_evaluation": {
         "branch":"master",
         "description": "build from master with stroke predictor evaluation init code."
      }
   },
   "pipelines": {
      "feature_engg_and_classifier_pipeline": {
         "branch":"master",
         "description": "build from master with stroke predictor evaluation init code."
      }
   }
}
